Lab_Controller/simulation/modelsim/dump.vcd
$date
	Fri Dec 28 10:55:12 2018
$end
$version
	ModelSim Version 10.3c
$end
$timescale
	1ps
$end

$scope module testbench $end
$var wire 1 ! clr_AF $end
$var wire 1 " incr_A $end
$var wire 1 # set_E $end
$var wire 1 $ set_F $end
$var wire 1 % clr_E $end
$var reg 1 & start $end
$var reg 1 ' A2 $end
$var reg 1 ( A3 $end
$var reg 1 ) clk $end
$var reg 1 * rst $end

$scope module c $end
$var wire 1 ! clr_AF $end
$var wire 1 " incr_A $end
$var wire 1 # set_E $end
$var wire 1 $ set_F $end
$var wire 1 % clr_E $end
$var wire 1 + start $end
$var wire 1 , A2 $end
$var wire 1 - A3 $end
$var wire 1 . clk $end
$var wire 1 / rst $end
$var wire 1 0 gnd $end
$var wire 1 1 vcc $end
$var wire 1 2 unknown $end
$var tri1 1 3 devclrn $end
$var tri1 1 4 devpor $end
$var tri1 1 5 devoe $end
$var wire 1 6 clr_AF~output_o $end
$var wire 1 7 incr_A~output_o $end
$var wire 1 8 set_E~output_o $end
$var wire 1 9 set_F~output_o $end
$var wire 1 : clr_E~output_o $end
$var wire 1 ; rst~input_o $end
$var wire 1 < A2~input_o $end
$var wire 1 = A3~input_o $end
$var wire 1 > g1|g4~combout $end
$var wire 1 ? clk~input_o $end
$var wire 1 @ g1|g4~0_combout $end
$var wire 1 A g1|g2~0_combout $end
$var wire 1 B g1|g5~combout $end
$var wire 1 C w2~0_combout $end
$var wire 1 D start~input_o $end
$var wire 1 E g0|g4~0_combout $end
$var wire 1 F g0|g6~0_combout $end
$var wire 1 G g0|g2~0_combout $end
$var wire 1 H g0|g5~combout $end
$var wire 1 I clr_AF~0_combout $end
$var wire 1 J set_E~0_combout $end
$var wire 1 K clr_E~0_combout $end

$scope module clr_AF~output $end
$var parameter 40 L open_drain_output $end
$var parameter 40 M bus_hold $end
$var parameter 136 N lpm_type $end
$var wire 1 O i $end
$var tri1 1 1 oe $end
$var tri1 1 5 devoe $end
$var wire 1 P seriesterminationcontrol [15] $end
$var wire 1 Q seriesterminationcontrol [14] $end
$var wire 1 R seriesterminationcontrol [13] $end
$var wire 1 S seriesterminationcontrol [12] $end
$var wire 1 T seriesterminationcontrol [11] $end
$var wire 1 U seriesterminationcontrol [10] $end
$var wire 1 V seriesterminationcontrol [9] $end
$var wire 1 W seriesterminationcontrol [8] $end
$var wire 1 X seriesterminationcontrol [7] $end
$var wire 1 Y seriesterminationcontrol [6] $end
$var wire 1 Z seriesterminationcontrol [5] $end
$var wire 1 [ seriesterminationcontrol [4] $end
$var wire 1 \ seriesterminationcontrol [3] $end
$var wire 1 ] seriesterminationcontrol [2] $end
$var wire 1 ^ seriesterminationcontrol [1] $end
$var wire 1 _ seriesterminationcontrol [0] $end
$var wire 1 6 o $end
$var wire 1 ` obar $end
$var reg 1 a out_tmp $end
$var reg 1 b out_tmp_bar $end
$var reg 1 c prev_value $end
$var wire 1 d tmp $end
$var wire 1 e tmp_bar $end
$var wire 1 f tmp1 $end
$var wire 1 g tmp1_bar $end
$upscope $end

$scope module incr_A~output $end
$var parameter 40 h open_drain_output $end
$var parameter 40 i bus_hold $end
$var parameter 136 j lpm_type $end
$var wire 1 k i $end
$var tri1 1 1 oe $end
$var tri1 1 5 devoe $end
$var wire 1 l seriesterminationcontrol [15] $end
$var wire 1 m seriesterminationcontrol [14] $end
$var wire 1 n seriesterminationcontrol [13] $end
$var wire 1 o seriesterminationcontrol [12] $end
$var wire 1 p seriesterminationcontrol [11] $end
$var wire 1 q seriesterminationcontrol [10] $end
$var wire 1 r seriesterminationcontrol [9] $end
$var wire 1 s seriesterminationcontrol [8] $end
$var wire 1 t seriesterminationcontrol [7] $end
$var wire 1 u seriesterminationcontrol [6] $end
$var wire 1 v seriesterminationcontrol [5] $end
$var wire 1 w seriesterminationcontrol [4] $end
$var wire 1 x seriesterminationcontrol [3] $end
$var wire 1 y seriesterminationcontrol [2] $end
$var wire 1 z seriesterminationcontrol [1] $end
$var wire 1 { seriesterminationcontrol [0] $end
$var wire 1 7 o $end
$var wire 1 | obar $end
$var reg 1 } out_tmp $end
$var reg 1 ~ out_tmp_bar $end
$var reg 1 !! prev_value $end
$var wire 1 "! tmp $end
$var wire 1 #! tmp_bar $end
$var wire 1 $! tmp1 $end
$var wire 1 %! tmp1_bar $end
$upscope $end

$scope module set_E~output $end
$var parameter 40 &! open_drain_output $end
$var parameter 40 '! bus_hold $end
$var parameter 136 (! lpm_type $end
$var wire 1 )! i $end
$var tri1 1 1 oe $end
$var tri1 1 5 devoe $end
$var wire 1 *! seriesterminationcontrol [15] $end
$var wire 1 +! seriesterminationcontrol [14] $end
$var wire 1 ,! seriesterminationcontrol [13] $end
$var wire 1 -! seriesterminationcontrol [12] $end
$var wire 1 .! seriesterminationcontrol [11] $end
$var wire 1 /! seriesterminationcontrol [10] $end
$var wire 1 0! seriesterminationcontrol [9] $end
$var wire 1 1! seriesterminationcontrol [8] $end
$var wire 1 2! seriesterminationcontrol [7] $end
$var wire 1 3! seriesterminationcontrol [6] $end
$var wire 1 4! seriesterminationcontrol [5] $end
$var wire 1 5! seriesterminationcontrol [4] $end
$var wire 1 6! seriesterminationcontrol [3] $end
$var wire 1 7! seriesterminationcontrol [2] $end
$var wire 1 8! seriesterminationcontrol [1] $end
$var wire 1 9! seriesterminationcontrol [0] $end
$var wire 1 8 o $end
$var wire 1 :! obar $end
$var reg 1 ;! out_tmp $end
$var reg 1 <! out_tmp_bar $end
$var reg 1 =! prev_value $end
$var wire 1 >! tmp $end
$var wire 1 ?! tmp_bar $end
$var wire 1 @! tmp1 $end
$var wire 1 A! tmp1_bar $end
$upscope $end

$scope module set_F~output $end
$var parameter 40 B! open_drain_output $end
$var parameter 40 C! bus_hold $end
$var parameter 136 D! lpm_type $end
$var wire 1 E! i $end
$var tri1 1 1 oe $end
$var tri1 1 5 devoe $end
$var wire 1 F! seriesterminationcontrol [15] $end
$var wire 1 G! seriesterminationcontrol [14] $end
$var wire 1 H! seriesterminationcontrol [13] $end
$var wire 1 I! seriesterminationcontrol [12] $end
$var wire 1 J! seriesterminationcontrol [11] $end
$var wire 1 K! seriesterminationcontrol [10] $end
$var wire 1 L! seriesterminationcontrol [9] $end
$var wire 1 M! seriesterminationcontrol [8] $end
$var wire 1 N! seriesterminationcontrol [7] $end
$var wire 1 O! seriesterminationcontrol [6] $end
$var wire 1 P! seriesterminationcontrol [5] $end
$var wire 1 Q! seriesterminationcontrol [4] $end
$var wire 1 R! seriesterminationcontrol [3] $end
$var wire 1 S! seriesterminationcontrol [2] $end
$var wire 1 T! seriesterminationcontrol [1] $end
$var wire 1 U! seriesterminationcontrol [0] $end
$var wire 1 9 o $end
$var wire 1 V! obar $end
$var reg 1 W! out_tmp $end
$var reg 1 X! out_tmp_bar $end
$var reg 1 Y! prev_value $end
$var wire 1 Z! tmp $end
$var wire 1 [! tmp_bar $end
$var wire 1 \! tmp1 $end
$var wire 1 ]! tmp1_bar $end
$upscope $end

$scope module clr_E~output $end
$var parameter 40 ^! open_drain_output $end
$var parameter 40 _! bus_hold $end
$var parameter 136 `! lpm_type $end
$var wire 1 a! i $end
$var tri1 1 1 oe $end
$var tri1 1 5 devoe $end
$var wire 1 b! seriesterminationcontrol [15] $end
$var wire 1 c! seriesterminationcontrol [14] $end
$var wire 1 d! seriesterminationcontrol [13] $end
$var wire 1 e! seriesterminationcontrol [12] $end
$var wire 1 f! seriesterminationcontrol [11] $end
$var wire 1 g! seriesterminationcontrol [10] $end
$var wire 1 h! seriesterminationcontrol [9] $end
$var wire 1 i! seriesterminationcontrol [8] $end
$var wire 1 j! seriesterminationcontrol [7] $end
$var wire 1 k! seriesterminationcontrol [6] $end
$var wire 1 l! seriesterminationcontrol [5] $end
$var wire 1 m! seriesterminationcontrol [4] $end
$var wire 1 n! seriesterminationcontrol [3] $end
$var wire 1 o! seriesterminationcontrol [2] $end
$var wire 1 p! seriesterminationcontrol [1] $end
$var wire 1 q! seriesterminationcontrol [0] $end
$var wire 1 : o $end
$var wire 1 r! obar $end
$var reg 1 s! out_tmp $end
$var reg 1 t! out_tmp_bar $end
$var reg 1 u! prev_value $end
$var wire 1 v! tmp $end
$var wire 1 w! tmp_bar $end
$var wire 1 x! tmp1 $end
$var wire 1 y! tmp1_bar $end
$upscope $end

$scope module rst~input $end
$var parameter 40 z! differential_mode $end
$var parameter 40 {! bus_hold $end
$var parameter 8 |! simulate_z_as $end
$var parameter 136 }! lpm_type $end
$var wire 1 / i $end
$var wire 1 0 ibar $end
$var wire 1 ; o $end
$var reg 1 ~! out_tmp $end
$var reg 1 !" o_tmp $end
$var wire 1 "" out_val $end
$var reg 1 #" prev_value $end
$upscope $end

$scope module A2~input $end
$var parameter 40 $" differential_mode $end
$var parameter 40 %" bus_hold $end
$var parameter 8 &" simulate_z_as $end
$var parameter 136 '" lpm_type $end
$var wire 1 , i $end
$var wire 1 0 ibar $end
$var wire 1 < o $end
$var reg 1 (" out_tmp $end
$var reg 1 )" o_tmp $end
$var wire 1 *" out_val $end
$var reg 1 +" prev_value $end
$upscope $end

$scope module A3~input $end
$var parameter 40 ," differential_mode $end
$var parameter 40 -" bus_hold $end
$var parameter 8 ." simulate_z_as $end
$var parameter 136 /" lpm_type $end
$var wire 1 - i $end
$var wire 1 0 ibar $end
$var wire 1 = o $end
$var reg 1 0" out_tmp $end
$var reg 1 1" o_tmp $end
$var wire 1 2" out_val $end
$var reg 1 3" prev_value $end
$upscope $end

$scope module g1|g4 $end
$var parameter 16 4" lut_mask $end
$var parameter 40 5" sum_lutc_input $end
$var parameter 24 6" dont_touch $end
$var parameter 160 7" lpm_type $end
$var wire 1 8" dataa $end
$var wire 1 9" datab $end
$var wire 1 :" datac $end
$var wire 1 ;" datad $end
$var wire 1 0 cin $end
$var wire 1 > combout $end
$var wire 1 <" cout $end
$var reg 1 =" cout_tmp $end
$var reg 1 >" combout_tmp $end
$var reg 2 ?" isum_lutc_input [1:0] $end
$var wire 1 @" dataa_in $end
$var wire 1 A" datab_in $end
$var wire 1 B" datac_in $end
$var wire 1 C" datad_in $end
$var wire 1 D" cin_in $end

$scope function lut4 $end
$var reg 1 E" lut4 $end
$var reg 16 F" mask [15:0] $end
$var reg 1 G" dataa $end
$var reg 1 H" datab $end
$var reg 1 I" datac $end
$var reg 1 J" datad $end
$upscope $end
$upscope $end

$scope module clk~input $end
$var parameter 40 K" differential_mode $end
$var parameter 40 L" bus_hold $end
$var parameter 8 M" simulate_z_as $end
$var parameter 136 N" lpm_type $end
$var wire 1 . i $end
$var wire 1 0 ibar $end
$var wire 1 ? o $end
$var reg 1 O" out_tmp $end
$var reg 1 P" o_tmp $end
$var wire 1 Q" out_val $end
$var reg 1 R" prev_value $end
$upscope $end

$scope module g1|g4~0 $end
$var parameter 16 S" lut_mask $end
$var parameter 40 T" sum_lutc_input $end
$var parameter 24 U" dont_touch $end
$var parameter 160 V" lpm_type $end
$var wire 1 0 dataa $end
$var wire 1 W" datab $end
$var wire 1 X" datac $end
$var wire 1 Y" datad $end
$var wire 1 0 cin $end
$var wire 1 @ combout $end
$var wire 1 Z" cout $end
$var reg 1 [" cout_tmp $end
$var reg 1 \" combout_tmp $end
$var reg 2 ]" isum_lutc_input [1:0] $end
$var wire 1 ^" dataa_in $end
$var wire 1 _" datab_in $end
$var wire 1 `" datac_in $end
$var wire 1 a" datad_in $end
$var wire 1 b" cin_in $end

$scope function lut4 $end
$var reg 1 c" lut4 $end
$var reg 16 d" mask [15:0] $end
$var reg 1 e" dataa $end
$var reg 1 f" datab $end
$var reg 1 g" datac $end
$var reg 1 h" datad $end
$upscope $end
$upscope $end

$scope module g1|g2~0 $end
$var parameter 16 i" lut_mask $end
$var parameter 40 j" sum_lutc_input $end
$var parameter 24 k" dont_touch $end
$var parameter 160 l" lpm_type $end
$var wire 1 m" dataa $end
$var wire 1 n" datab $end
$var wire 1 o" datac $end
$var wire 1 p" datad $end
$var wire 1 0 cin $end
$var wire 1 A combout $end
$var wire 1 q" cout $end
$var reg 1 r" cout_tmp $end
$var reg 1 s" combout_tmp $end
$var reg 2 t" isum_lutc_input [1:0] $end
$var wire 1 u" dataa_in $end
$var wire 1 v" datab_in $end
$var wire 1 w" datac_in $end
$var wire 1 x" datad_in $end
$var wire 1 y" cin_in $end

$scope function lut4 $end
$var reg 1 z" lut4 $end
$var reg 16 {" mask [15:0] $end
$var reg 1 |" dataa $end
$var reg 1 }" datab $end
$var reg 1 ~" datac $end
$var reg 1 !# datad $end
$upscope $end
$upscope $end

$scope module g1|g5 $end
$var parameter 16 "# lut_mask $end
$var parameter 40 ## sum_lutc_input $end
$var parameter 24 $# dont_touch $end
$var parameter 160 %# lpm_type $end
$var wire 1 &# dataa $end
$var wire 1 0 datab $end
$var wire 1 '# datac $end
$var wire 1 (# datad $end
$var wire 1 0 cin $end
$var wire 1 B combout $end
$var wire 1 )# cout $end
$var reg 1 *# cout_tmp $end
$var reg 1 +# combout_tmp $end
$var reg 2 ,# isum_lutc_input [1:0] $end
$var wire 1 -# dataa_in $end
$var wire 1 .# datab_in $end
$var wire 1 /# datac_in $end
$var wire 1 0# datad_in $end
$var wire 1 1# cin_in $end

$scope function lut4 $end
$var reg 1 2# lut4 $end
$var reg 16 3# mask [15:0] $end
$var reg 1 4# dataa $end
$var reg 1 5# datab $end
$var reg 1 6# datac $end
$var reg 1 7# datad $end
$upscope $end
$upscope $end

$scope module w2~0 $end
$var parameter 16 8# lut_mask $end
$var parameter 40 9# sum_lutc_input $end
$var parameter 24 :# dont_touch $end
$var parameter 160 ;# lpm_type $end
$var wire 1 <# dataa $end
$var wire 1 =# datab $end
$var wire 1 ># datac $end
$var wire 1 0 datad $end
$var wire 1 0 cin $end
$var wire 1 C combout $end
$var wire 1 ?# cout $end
$var reg 1 @# cout_tmp $end
$var reg 1 A# combout_tmp $end
$var reg 2 B# isum_lutc_input [1:0] $end
$var wire 1 C# dataa_in $end
$var wire 1 D# datab_in $end
$var wire 1 E# datac_in $end
$var wire 1 F# datad_in $end
$var wire 1 G# cin_in $end

$scope function lut4 $end
$var reg 1 H# lut4 $end
$var reg 16 I# mask [15:0] $end
$var reg 1 J# dataa $end
$var reg 1 K# datab $end
$var reg 1 L# datac $end
$var reg 1 M# datad $end
$upscope $end
$upscope $end

$scope module start~input $end
$var parameter 40 N# differential_mode $end
$var parameter 40 O# bus_hold $end
$var parameter 8 P# simulate_z_as $end
$var parameter 136 Q# lpm_type $end
$var wire 1 + i $end
$var wire 1 0 ibar $end
$var wire 1 D o $end
$var reg 1 R# out_tmp $end
$var reg 1 S# o_tmp $end
$var wire 1 T# out_val $end
$var reg 1 U# prev_value $end
$upscope $end

$scope module g0|g4~0 $end
$var parameter 16 V# lut_mask $end
$var parameter 40 W# sum_lutc_input $end
$var parameter 24 X# dont_touch $end
$var parameter 160 Y# lpm_type $end
$var wire 1 Z# dataa $end
$var wire 1 [# datab $end
$var wire 1 \# datac $end
$var wire 1 ]# datad $end
$var wire 1 0 cin $end
$var wire 1 E combout $end
$var wire 1 ^# cout $end
$var reg 1 _# cout_tmp $end
$var reg 1 `# combout_tmp $end
$var reg 2 a# isum_lutc_input [1:0] $end
$var wire 1 b# dataa_in $end
$var wire 1 c# datab_in $end
$var wire 1 d# datac_in $end
$var wire 1 e# datad_in $end
$var wire 1 f# cin_in $end

$scope function lut4 $end
$var reg 1 g# lut4 $end
$var reg 16 h# mask [15:0] $end
$var reg 1 i# dataa $end
$var reg 1 j# datab $end
$var reg 1 k# datac $end
$var reg 1 l# datad $end
$upscope $end
$upscope $end

$scope module g0|g6~0 $end
$var parameter 16 m# lut_mask $end
$var parameter 40 n# sum_lutc_input $end
$var parameter 24 o# dont_touch $end
$var parameter 160 p# lpm_type $end
$var wire 1 0 dataa $end
$var wire 1 q# datab $end
$var wire 1 r# datac $end
$var wire 1 s# datad $end
$var wire 1 0 cin $end
$var wire 1 F combout $end
$var wire 1 t# cout $end
$var reg 1 u# cout_tmp $end
$var reg 1 v# combout_tmp $end
$var reg 2 w# isum_lutc_input [1:0] $end
$var wire 1 x# dataa_in $end
$var wire 1 y# datab_in $end
$var wire 1 z# datac_in $end
$var wire 1 {# datad_in $end
$var wire 1 |# cin_in $end

$scope function lut4 $end
$var reg 1 }# lut4 $end
$var reg 16 ~# mask [15:0] $end
$var reg 1 !$ dataa $end
$var reg 1 "$ datab $end
$var reg 1 #$ datac $end
$var reg 1 $$ datad $end
$upscope $end
$upscope $end

$scope module g0|g2~0 $end
$var parameter 16 %$ lut_mask $end
$var parameter 40 &$ sum_lutc_input $end
$var parameter 24 '$ dont_touch $end
$var parameter 160 ($ lpm_type $end
$var wire 1 )$ dataa $end
$var wire 1 *$ datab $end
$var wire 1 +$ datac $end
$var wire 1 ,$ datad $end
$var wire 1 0 cin $end
$var wire 1 G combout $end
$var wire 1 -$ cout $end
$var reg 1 .$ cout_tmp $end
$var reg 1 /$ combout_tmp $end
$var reg 2 0$ isum_lutc_input [1:0] $end
$var wire 1 1$ dataa_in $end
$var wire 1 2$ datab_in $end
$var wire 1 3$ datac_in $end
$var wire 1 4$ datad_in $end
$var wire 1 5$ cin_in $end

$scope function lut4 $end
$var reg 1 6$ lut4 $end
$var reg 16 7$ mask [15:0] $end
$var reg 1 8$ dataa $end
$var reg 1 9$ datab $end
$var reg 1 :$ datac $end
$var reg 1 ;$ datad $end
$upscope $end
$upscope $end

$scope module g0|g5 $end
$var parameter 16 <$ lut_mask $end
$var parameter 40 =$ sum_lutc_input $end
$var parameter 24 >$ dont_touch $end
$var parameter 160 ?$ lpm_type $end
$var wire 1 0 dataa $end
$var wire 1 @$ datab $end
$var wire 1 A$ datac $end
$var wire 1 B$ datad $end
$var wire 1 0 cin $end
$var wire 1 H combout $end
$var wire 1 C$ cout $end
$var reg 1 D$ cout_tmp $end
$var reg 1 E$ combout_tmp $end
$var reg 2 F$ isum_lutc_input [1:0] $end
$var wire 1 G$ dataa_in $end
$var wire 1 H$ datab_in $end
$var wire 1 I$ datac_in $end
$var wire 1 J$ datad_in $end
$var wire 1 K$ cin_in $end

$scope function lut4 $end
$var reg 1 L$ lut4 $end
$var reg 16 M$ mask [15:0] $end
$var reg 1 N$ dataa $end
$var reg 1 O$ datab $end
$var reg 1 P$ datac $end
$var reg 1 Q$ datad $end
$upscope $end
$upscope $end

$scope module clr_AF~0 $end
$var parameter 16 R$ lut_mask $end
$var parameter 40 S$ sum_lutc_input $end
$var parameter 24 T$ dont_touch $end
$var parameter 160 U$ lpm_type $end
$var wire 1 0 dataa $end
$var wire 1 V$ datab $end
$var wire 1 W$ datac $end
$var wire 1 X$ datad $end
$var wire 1 0 cin $end
$var wire 1 I combout $end
$var wire 1 Y$ cout $end
$var reg 1 Z$ cout_tmp $end
$var reg 1 [$ combout_tmp $end
$var reg 2 \$ isum_lutc_input [1:0] $end
$var wire 1 ]$ dataa_in $end
$var wire 1 ^$ datab_in $end
$var wire 1 _$ datac_in $end
$var wire 1 `$ datad_in $end
$var wire 1 a$ cin_in $end

$scope function lut4 $end
$var reg 1 b$ lut4 $end
$var reg 16 c$ mask [15:0] $end
$var reg 1 d$ dataa $end
$var reg 1 e$ datab $end
$var reg 1 f$ datac $end
$var reg 1 g$ datad $end
$upscope $end
$upscope $end

$scope module set_E~0 $end
$var parameter 16 h$ lut_mask $end
$var parameter 40 i$ sum_lutc_input $end
$var parameter 24 j$ dont_touch $end
$var parameter 160 k$ lpm_type $end
$var wire 1 l$ dataa $end
$var wire 1 m$ datab $end
$var wire 1 n$ datac $end
$var wire 1 o$ datad $end
$var wire 1 0 cin $end
$var wire 1 J combout $end
$var wire 1 p$ cout $end
$var reg 1 q$ cout_tmp $end
$var reg 1 r$ combout_tmp $end
$var reg 2 s$ isum_lutc_input [1:0] $end
$var wire 1 t$ dataa_in $end
$var wire 1 u$ datab_in $end
$var wire 1 v$ datac_in $end
$var wire 1 w$ datad_in $end
$var wire 1 x$ cin_in $end

$scope function lut4 $end
$var reg 1 y$ lut4 $end
$var reg 16 z$ mask [15:0] $end
$var reg 1 {$ dataa $end
$var reg 1 |$ datab $end
$var reg 1 }$ datac $end
$var reg 1 ~$ datad $end
$upscope $end
$upscope $end

$scope module clr_E~0 $end
$var parameter 16 !% lut_mask $end
$var parameter 40 "% sum_lutc_input $end
$var parameter 24 #% dont_touch $end
$var parameter 160 $% lpm_type $end
$var wire 1 %% dataa $end
$var wire 1 &% datab $end
$var wire 1 '% datac $end
$var wire 1 (% datad $end
$var wire 1 0 cin $end
$var wire 1 K combout $end
$var wire 1 )% cout $end
$var reg 1 *% cout_tmp $end
$var reg 1 +% combout_tmp $end
$var reg 2 ,% isum_lutc_input [1:0] $end
$var wire 1 -% dataa_in $end
$var wire 1 .% datab_in $end
$var wire 1 /% datac_in $end
$var wire 1 0% datad_in $end
$var wire 1 1% cin_in $end

$scope function lut4 $end
$var reg 1 2% lut4 $end
$var reg 16 3% mask [15:0] $end
$var reg 1 4% dataa $end
$var reg 1 5% datab $end
$var reg 1 6% datac $end
$var reg 1 7% datad $end
$upscope $end
$upscope $end
$upscope $end
$upscope $end
$enddefinitions $end
#0
$dumpvars
0&
0'
0(
0)
0*
xa
xb
0c
x}
x~
0!!
x;!
x<!
0=!
xW!
xX!
0Y!
xs!
xt!
0u!
0~!
0!"
0#"
0("
0)"
0+"
00"
01"
03"
0="
x>"
b0 ?"
0E"
b10000000 F"
xG"
xH"
0I"
0J"
0O"
0P"
0R"
0["
x\"
b0 ]"
0c"
b1100000011110000 d"
0e"
xf"
0g"
0h"
0r"
xs"
b0 t"
0z"
b1010100000000000 {"
x|"
x}"
0~"
0!#
x*#
x+#
b0 ,#
x2#
b101000001010101 3#
x4#
05#
06#
07#
x@#
xA#
b0 B#
xH#
b1100111011001110 I#
xJ#
xK#
0L#
0M#
0R#
0S#
0U#
0_#
x`#
b0 a#
0g#
b1101000001010000 h#
xi#
xj#
0k#
0l#
xu#
xv#
b0 w#
x}#
b1100000011001100 ~#
0!$
x"$
0#$
0$$
0.$
x/$
b0 0$
06$
b1100100000000000 7$
x8$
x9$
0:$
0;$
xD$
xE$
b0 F$
xL$
b111100000011 M$
0N$
xO$
0P$
0Q$
0Z$
x[$
b0 \$
0b$
b1100111100000000 c$
0d$
xe$
0f$
0g$
xq$
xr$
b0 s$
xy$
b10000000100010 z$
x{$
x|$
0}$
0~$
x*%
x+%
b0 ,%
x2%
b1110111111101110 3%
x4%
x5%
06%
07%
b10000000 4"
b1100000011110000 S"
b1010100000000000 i"
b101000001010101 "#
b1100111011001110 8#
b1101000001010000 V#
b1100000011001100 m#
b1100100000000000 %$
b111100000011 <$
b1100111100000000 R$
b10000000100010 h$
b1110111111101110 !%
b110011001100001011011000111001101100101 L
b110011001100001011011000111001101100101 M
b110001101111001011000110110110001101111011011100110010101101001011101100101111101101001011011110101111101101111011000100111010101100110 N
b110011001100001011011000111001101100101 h
b110011001100001011011000111001101100101 i
b110001101111001011000110110110001101111011011100110010101101001011101100101111101101001011011110101111101101111011000100111010101100110 j
b110011001100001011011000111001101100101 &!
b110011001100001011011000111001101100101 '!
b110001101111001011000110110110001101111011011100110010101101001011101100101111101101001011011110101111101101111011000100111010101100110 (!
b110011001100001011011000111001101100101 B!
b110011001100001011011000111001101100101 C!
b110001101111001011000110110110001101111011011100110010101101001011101100101111101101001011011110101111101101111011000100111010101100110 D!
b110011001100001011011000111001101100101 ^!
b110011001100001011011000111001101100101 _!
b110001101111001011000110110110001101111011011100110010101101001011101100101111101101001011011110101111101101111011000100111010101100110 `!
b110011001100001011011000111001101100101 z!
b110011001100001011011000111001101100101 {!
b1111010 |!
b110001101111001011000110110110001101111011011100110010101101001011101100101111101101001011011110101111101101001011000100111010101100110 }!
b110011001100001011011000111001101100101 $"
b110011001100001011011000111001101100101 %"
b1111010 &"
b110001101111001011000110110110001101111011011100110010101101001011101100101111101101001011011110101111101101001011000100111010101100110 '"
b110011001100001011011000111001101100101 ,"
b110011001100001011011000111001101100101 -"
b1111010 ."
b110001101111001011000110110110001101111011011100110010101101001011101100101111101101001011011110101111101101001011000100111010101100110 /"
b110010001100001011101000110000101100011 5"
b11011110110011001100110 6"
b110001101111001011000110110110001101111011011100110010101101001011101100101111101101100011000110110010101101100011011000101111101100011011011110110110101100010 7"
b110011001100001011011000111001101100101 K"
b110011001100001011011000111001101100101 L"
b1111010 M"
b110001101111001011000110110110001101111011011100110010101101001011101100101111101101001011011110101111101101001011000100111010101100110 N"
b110010001100001011101000110000101100011 T"
b11011110110011001100110 U"
b110001101111001011000110110110001101111011011100110010101101001011101100101111101101100011000110110010101101100011011000101111101100011011011110110110101100010 V"
b110010001100001011101000110000101100011 j"
b11011110110011001100110 k"
b110001101111001011000110110110001101111011011100110010101101001011101100101111101101100011000110110010101101100011011000101111101100011011011110110110101100010 l"
b110010001100001011101000110000101100011 ##
b11011110110011001100110 $#
b110001101111001011000110110110001101111011011100110010101101001011101100101111101101100011000110110010101101100011011000101111101100011011011110110110101100010 %#
b110010001100001011101000110000101100011 9#
b11011110110011001100110 :#
b110001101111001011000110110110001101111011011100110010101101001011101100101111101101100011000110110010101101100011011000101111101100011011011110110110101100010 ;#
b110011001100001011011000111001101100101 N#
b110011001100001011011000111001101100101 O#
b1111010 P#
b110001101111001011000110110110001101111011011100110010101101001011101100101111101101001011011110101111101101001011000100111010101100110 Q#
b110010001100001011101000110000101100011 W#
b11011110110011001100110 X#
b110001101111001011000110110110001101111011011100110010101101001011101100101111101101100011000110110010101101100011011000101111101100011011011110110110101100010 Y#
b110010001100001011101000110000101100011 n#
b11011110110011001100110 o#
b110001101111001011000110110110001101111011011100110010101101001011101100101111101101100011000110110010101101100011011000101111101100011011011110110110101100010 p#
b110010001100001011101000110000101100011 &$
b11011110110011001100110 '$
b110001101111001011000110110110001101111011011100110010101101001011101100101111101101100011000110110010101101100011011000101111101100011011011110110110101100010 ($
b110010001100001011101000110000101100011 =$
b11011110110011001100110 >$
b110001101111001011000110110110001101111011011100110010101101001011101100101111101101100011000110110010101101100011011000101111101100011011011110110110101100010 ?$
b110010001100001011101000110000101100011 S$
b11011110110011001100110 T$
b110001101111001011000110110110001101111011011100110010101101001011101100101111101101100011000110110010101101100011011000101111101100011011011110110110101100010 U$
b110010001100001011101000110000101100011 i$
b11011110110011001100110 j$
b110001101111001011000110110110001101111011011100110010101101001011101100101111101101100011000110110010101101100011011000101111101100011011011110110110101100010 k$
b110010001100001011101000110000101100011 "%
b11011110110011001100110 #%
b110001101111001011000110110110001101111011011100110010101101001011101100101111101101100011000110110010101101100011011000101111101100011011011110110110101100010 $%
x!
x"
x#
x$
x%
00
11
x2
13
14
15
x6
x7
x8
x9
x:
0;
0<
0=
x>
0?
x@
xA
xB
xC
0D
xE
xF
xG
xH
xI
xJ
xK
xd
xe
xf
xg
x"!
x#!
x$!
x%!
x>!
x?!
x@!
xA!
xZ!
x[!
x\!
x]!
xv!
xw!
xx!
xy!
z""
z*"
z2"
x@"
xA"
xB"
xC"
0D"
zQ"
0^"
x_"
x`"
xa"
0b"
xu"
xv"
xw"
xx"
0y"
x-#
0.#
x/#
x0#
01#
xC#
xD#
xE#
0F#
0G#
zT#
xb#
xc#
xd#
xe#
0f#
0x#
xy#
xz#
x{#
0|#
x1$
x2$
x3$
x4$
05$
0G$
xH$
xI$
xJ$
0K$
0]$
x^$
x_$
x`$
0a$
xt$
xu$
xv$
xw$
0x$
x-%
x.%
x/%
x0%
01%
0/
0.
0-
0,
0+
0q!
0p!
0o!
0n!
0m!
0l!
0k!
0j!
0i!
0h!
0g!
0f!
0e!
0d!
0c!
0b!
0U!
0T!
0S!
0R!
0Q!
0P!
0O!
0N!
0M!
0L!
0K!
0J!
0I!
0H!
0G!
0F!
09!
08!
07!
06!
05!
04!
03!
02!
01!
00!
0/!
0.!
0-!
0,!
0+!
0*!
0{
0z
0y
0x
0w
0v
0u
0t
0s
0r
0q
0p
0o
0n
0m
0l
0_
0^
0]
0\
0[
0Z
0Y
0X
0W
0V
0U
0T
0S
0R
0Q
0P
xO
x`
xk
x|
x)!
x:!
xE!
xV!
xa!
xr!
x8"
x9"
x:"
x;"
0<"
xW"
xX"
xY"
0Z"
xm"
xn"
xo"
xp"
0q"
x&#
x'#
x(#
x)#
x<#
x=#
x>#
x?#
xZ#
x[#
x\#
x]#
0^#
xq#
xr#
xs#
xt#
x)$
x*$
x+$
x,$
0-$
x@$
xA$
xB$
xC$
xV$
xW$
xX$
0Y$
xl$
xm$
xn$
xo$
xp$
x%%
x&%
x'%
x(%
x)%
$end
#3536
0*$
02$
09$
x:$
x;$
0/$
0:$
0;$
#3537
0q#
0y#
0"$
x#$
x$$
0}#
0v#
0#$
0$$
0u#
0t#
#3542
0p"
0x"
x~"
0s"
0~"
#3546
0Y"
0a"
xg"
xc"
0g"
0c"
#3548
0,$
04$
x:$
0:$
#3549
0s#
0{#
x#$
0#$
#3577
0l$
0%%
0t$
0-%
04%
x6%
x7%
06%
07%
0{$
x}$
x~$
0y$
0r$
0}$
0~$
0q$
0p$
#3578
0]#
0X$
0e#
0`$
xf$
0[$
0f$
xk#
xg#
0k#
0g#
#3662
0A
#3698
0I
#3752
09"
0A"
0H"
xI"
xJ"
0>"
0I"
0J"
#3762
0X"
0`"
0\"
#3800
0m"
0u"
0|"
x~"
0~"
#3847
0G
#3878
0o"
0w"
#3906
0F
#3916
0&#
0-#
04#
x6#
x7#
06#
07#
12#
1*#
1)#
#3926
0J
#4004
0@
#4049
0:"
0B"
xJ"
0J"
#4060
0+$
03$
#4064
0A$
0I$
xQ$
0Q$
#4094
0>
