iverilog/final/result.vcd
$date
	Fri Jan 11 13:48:31 2019
$end
$version
	Icarus Verilog
$end
$timescale
	1ns
$end
$scope module testbench $end
$var wire 4 ! result [3:0] $end
$var reg 1 " CLK $end
$var reg 1 # RST $end
$scope module fin $end
$var wire 1 $ clk $end
$var wire 4 % comp_in [3:0] $end
$var wire 4 & out [3:0] $end
$var wire 1 ' rst $end
$scope module f $end
$var wire 1 $ clk $end
$var wire 2 ( cnt [1:0] $end
$var wire 1 ) cnt_en $end
$var wire 1 * da $end
$var wire 1 + db $end
$var wire 1 , dc $end
$var wire 3 - number [2:0] $end
$var wire 1 . qa $end
$var wire 1 / qa_c $end
$var wire 1 0 qb $end
$var wire 1 1 qb_c $end
$var wire 1 2 qc $end
$var wire 1 3 qc_c $end
$var wire 1 ' rst $end
$scope module a $end
$var wire 1 $ CLK $end
$var wire 1 * D $end
$var wire 1 . Q $end
$var wire 1 / Qc $end
$var wire 1 4 R $end
$var wire 1 ' RST $end
$var wire 1 5 Rc $end
$var wire 1 6 S $end
$var wire 1 7 Sc $end
$upscope $end
$scope module b $end
$var wire 1 $ CLK $end
$var wire 1 + D $end
$var wire 1 0 Q $end
$var wire 1 1 Qc $end
$var wire 1 8 R $end
$var wire 1 ' RST $end
$var wire 1 9 Rc $end
$var wire 1 : S $end
$var wire 1 ; Sc $end
$upscope $end
$scope module c $end
$var wire 1 $ CLK $end
$var wire 1 , D $end
$var wire 1 2 Q $end
$var wire 1 3 Qc $end
$var wire 1 < R $end
$var wire 1 ' RST $end
$var wire 1 = Rc $end
$var wire 1 > S $end
$var wire 1 ? Sc $end
$upscope $end
$scope module count $end
$var wire 1 @ c0_in $end
$var wire 1 A c1_in $end
$var wire 1 $ clk $end
$var wire 2 B counter [1:0] $end
$var wire 1 C q0 $end
$var wire 1 D q0_c $end
$var wire 1 E q1 $end
$var wire 1 F q1_c $end
$var wire 1 ) rst $end
$scope module cnt0 $end
$var wire 1 $ CLK $end
$var wire 1 @ D $end
$var wire 1 C Q $end
$var wire 1 D Qc $end
$var wire 1 G R $end
$var wire 1 ) RST $end
$var wire 1 H Rc $end
$var wire 1 I S $end
$var wire 1 J Sc $end
$upscope $end
$scope module cnt1 $end
$var wire 1 $ CLK $end
$var wire 1 A D $end
$var wire 1 E Q $end
$var wire 1 F Qc $end
$var wire 1 K R $end
$var wire 1 ) RST $end
$var wire 1 L Rc $end
$var wire 1 M S $end
$var wire 1 N Sc $end
$upscope $end
$upscope $end
$upscope $end
$scope module c $end
$var wire 4 O comp1 [3:0] $end
$var wire 4 P in [3:0] $end
$var wire 4 Q out [3:0] $end
$upscope $end
$upscope $end
$upscope $end
$enddefinitions $end
#0
$dumpvars
b0 Q
b0 P
b1111 O
0N
1M
1L
1K
0J
1I
1H
1G
1F
0E
1D
0C
b0 B
0A
1@
0?
1>
1=
1<
0;
1:
19
18
07
16
15
14
13
02
11
00
1/
0.
b0 -
1,
0+
1*
0)
b0 (
0'
b0 &
b0 %
0$
0#
0"
b0 !
$end
#10
04
08
0<
0G
0K
1"
1$
#20
17
1?
05
0=
14
18
1<
1G
1K
0"
0$
1#
1'
#30
04
15
0*
b1011 !
b1011 &
b1011 Q
1/
03
b1010 O
1+
1.
12
b101 %
b101 P
b101 -
06
08
0>
0G
0K
1"
1$
#40
0+
0;
07
0/
19
16
14
18
1>
1G
1K
0"
0$
#50
b1111 !
b1111 &
b1111 Q
b1110 O
0.
b1 %
b1 P
b1 -
1+
1/
04
08
0>
0G
0K
1"
1$
#60
1;
09
14
18
1>
1G
1K
0"
0$
#70
13
0<
1=
1,
b1101 !
b1101 &
b1101 Q
1)
01
b1100 O
10
b11 %
b11 P
b11 -
04
0:
0>
0G
0K
1"
1$
#80
1J
0=
03
0H
14
1:
1>
1<
1G
1K
0"
0$
#90
0D
1A
1C
b1 (
b1 B
04
0:
0>
0I
0K
1"
1$
#100
1N
0L
14
1:
1>
1I
1K
0"
0$
#110
13
0<
1=
0,
1D
0K
1*
0G
1L
1H
1A
1F
1@
1E
b11 (
b11 B
04
0:
0>
0I
0M
1"
1$
#120
0N
17
0A
05
0?
03
0J
0D
1L
0F
0@
14
1:
1>
1<
1I
1G
1M
1K
0"
0$
#130
1,
11
04
08
15
19
1*
b1010 !
b1010 &
b1010 Q
0+
0)
1/
b1001 O
02
0C
0E
b0 (
b0 B
0A
1.
b110 %
b110 P
b110 -
13
1D
1F
1@
06
0:
0<
0G
0K
1"
1$
#140
07
0,
0*
0?
15
0/
0;
01
1=
16
14
1:
18
1<
1G
1K
0"
0$
#150
b0 !
b0 &
b0 Q
1*
b1111 O
1,
0.
00
b0 %
b0 P
b0 -
1/
11
04
08
0<
0G
0K
1"
1$
#160
17
1?
05
0=
14
18
1<
1G
1K
0"
0$
#170
04
15
0*
b1011 !
b1011 &
b1011 Q
1/
03
b1010 O
1+
1.
12
b101 %
b101 P
b101 -
06
08
0>
0G
0K
1"
1$
#180
0+
0;
07
0/
19
16
14
18
1>
1G
1K
0"
0$
#190
b1111 !
b1111 &
b1111 Q
b1110 O
0.
b1 %
b1 P
b1 -
1+
1/
04
08
0>
0G
0K
1"
1$
#200
1;
09
14
18
1>
1G
1K
0"
0$
#210
13
0<
1=
1,
b1101 !
b1101 &
b1101 Q
1)
01
b1100 O
10
b11 %
b11 P
b11 -
04
0:
0>
0G
0K
1"
1$
#220
1J
0=
03
0H
14
1:
1>
1<
1G
1K
0"
0$
#230
0D
1A
1C
b1 (
b1 B
04
0:
0>
0I
0K
1"
1$
#240
1N
0L
14
1:
1>
1I
1K
0"
0$
#250
13
0<
1=
0,
1D
0K
1*
0G
1L
1H
1A
1F
1@
1E
b11 (
b11 B
04
0:
0>
0I
0M
1"
1$
#260
0N
17
0A
05
0?
03
0J
0D
1L
0F
0@
14
1:
1>
1<
1I
1G
1M
1K
0"
0$
#270
1,
11
04
08
15
19
1*
b1010 !
b1010 &
b1010 Q
0+
0)
1/
b1001 O
02
0C
0E
b0 (
b0 B
0A
1.
b110 %
b110 P
b110 -
13
1D
1F
1@
06
0:
0<
0G
0K
1"
1$
#280
07
0,
0*
0?
15
0/
0;
01
1=
16
14
1:
18
1<
1G
1K
0"
0$
#290
b0 !
b0 &
b0 Q
1*
b1111 O
1,
0.
00
b0 %
b0 P
b0 -
1/
11
04
08
0<
0G
0K
1"
1$
#300
17
1?
05
0=
14
18
1<
1G
1K
0"
0$
#310
04
15
0*
b1011 !
b1011 &
b1011 Q
1/
03
b1010 O
1+
1.
12
b101 %
b101 P
b101 -
06
08
0>
0G
0K
1"
1$
#320
0+
0;
07
0/
19
16
14
18
1>
1G
1K
0"
0$
#330
b1111 !
b1111 &
b1111 Q
b1110 O
0.
b1 %
b1 P
b1 -
1+
1/
04
08
0>
0G
0K
1"
1$
#340
1;
09
14
18
1>
1G
1K
0"
0$
#350
13
0<
1=
1,
b1101 !
b1101 &
b1101 Q
1)
01
b1100 O
10
b11 %
b11 P
b11 -
04
0:
0>
0G
0K
1"
1$
#360
1J
0=
03
0H
14
1:
1>
1<
1G
1K
0"
0$
#370
0D
1A
1C
b1 (
b1 B
04
0:
0>
0I
0K
1"
1$
#380
1N
0L
14
1:
1>
1I
1K
0"
0$
#390
13
0<
1=
0,
1D
0K
1*
0G
1L
1H
1A
1F
1@
1E
b11 (
b11 B
04
0:
0>
0I
0M
1"
1$
#400
0N
17
0A
05
0?
03
0J
0D
1L
0F
0@
14
1:
1>
1<
1I
1G
1M
1K
0"
0$
#410
1,
11
04
08
15
19
1*
b1010 !
b1010 &
b1010 Q
0+
0)
1/
b1001 O
02
0C
0E
b0 (
b0 B
0A
1.
b110 %
b110 P
b110 -
13
1D
1F
1@
06
0:
0<
0G
0K
1"
1$
#420
07
0,
0*
0?
15
0/
0;
01
1=
16
14
1:
18
1<
1G
1K
0"
0$
#430
b0 !
b0 &
b0 Q
1*
b1111 O
1,
0.
00
b0 %
b0 P
b0 -
1/
11
04
08
0<
0G
0K
1"
1$
#440
17
1?
05
0=
14
18
1<
1G
1K
0"
0$
#450
04
15
0*
b1011 !
b1011 &
b1011 Q
1/
03
b1010 O
1+
1.
12
b101 %
b101 P
b101 -
06
08
0>
0G
0K
1"
1$
#460
0+
0;
07
0/
19
16
14
18
1>
1G
1K
0"
0$
#470
b1111 !
b1111 &
b1111 Q
b1110 O
0.
b1 %
b1 P
b1 -
1+
1/
04
08
0>
0G
0K
1"
1$
#480
1;
09
14
18
1>
1G
1K
0"
0$
#490
13
0<
1=
1,
b1101 !
b1101 &
b1101 Q
1)
01
b1100 O
10
b11 %
b11 P
b11 -
04
0:
0>
0G
0K
1"
1$
#500
1J
0=
03
0H
14
1:
1>
1<
1G
1K
0"
0$
#510
0D
1A
1C
b1 (
b1 B
04
0:
0>
0I
0K
1"
1$
#520
0A
0J
0C
b0 (
b0 B
b0 !
b0 &
b0 Q
1H
1D
1*
0N
b1111 O
0+
0)
1L
0;
00
0?
02
b0 %
b0 P
b0 -
14
1I
1K
1:
19
11
1>
1=
13
0"
0$
0#
0'
