final_mock1/simulation/modelsim/result.vcd
$date
	Fri Jan 11 04:26:49 2019
$end
$version
	ModelSim Version 10.3c
$end
$timescale
	1ps
$end

$scope module testbench $end
$var reg 1 ! CLK $end
$var reg 1 " RST $end
$var wire 1 # count [1] $end
$var wire 1 $ count [0] $end

$scope module mock $end
$var wire 1 # counter [1] $end
$var wire 1 $ counter [0] $end
$var wire 1 % clk $end
$var wire 1 & rst $end
$var wire 1 ' gnd $end
$var wire 1 ( vcc $end
$var wire 1 ) unknown $end
$var tri1 1 * devclrn $end
$var tri1 1 + devpor $end
$var tri1 1 , devoe $end
$var wire 1 - counter[0]~output_o $end
$var wire 1 . counter[1]~output_o $end
$var wire 1 / rst~input_o $end
$var wire 1 0 clk~input_o $end
$var wire 1 1 cnt0|g4~0_combout $end
$var wire 1 2 cnt0|g6~0_combout $end
$var wire 1 3 cnt0|g2~0_combout $end
$var wire 1 4 cnt0|g5~combout $end
$var wire 1 5 cnt1|g4~0_combout $end
$var wire 1 6 cnt1|g5~0_combout $end
$var wire 1 7 cnt1|g2~0_combout $end
$var wire 1 8 cnt1|g5~1_combout $end

$scope module counter[0]~output $end
$var parameter 40 9 open_drain_output $end
$var parameter 40 : bus_hold $end
$var parameter 136 ; lpm_type $end
$var wire 1 < i $end
$var tri1 1 ( oe $end
$var tri1 1 , devoe $end
$var wire 1 = seriesterminationcontrol [15] $end
$var wire 1 > seriesterminationcontrol [14] $end
$var wire 1 ? seriesterminationcontrol [13] $end
$var wire 1 @ seriesterminationcontrol [12] $end
$var wire 1 A seriesterminationcontrol [11] $end
$var wire 1 B seriesterminationcontrol [10] $end
$var wire 1 C seriesterminationcontrol [9] $end
$var wire 1 D seriesterminationcontrol [8] $end
$var wire 1 E seriesterminationcontrol [7] $end
$var wire 1 F seriesterminationcontrol [6] $end
$var wire 1 G seriesterminationcontrol [5] $end
$var wire 1 H seriesterminationcontrol [4] $end
$var wire 1 I seriesterminationcontrol [3] $end
$var wire 1 J seriesterminationcontrol [2] $end
$var wire 1 K seriesterminationcontrol [1] $end
$var wire 1 L seriesterminationcontrol [0] $end
$var wire 1 - o $end
$var wire 1 M obar $end
$var reg 1 N out_tmp $end
$var reg 1 O out_tmp_bar $end
$var reg 1 P prev_value $end
$var wire 1 Q tmp $end
$var wire 1 R tmp_bar $end
$var wire 1 S tmp1 $end
$var wire 1 T tmp1_bar $end
$upscope $end

$scope module counter[1]~output $end
$var parameter 40 U open_drain_output $end
$var parameter 40 V bus_hold $end
$var parameter 136 W lpm_type $end
$var wire 1 X i $end
$var tri1 1 ( oe $end
$var tri1 1 , devoe $end
$var wire 1 Y seriesterminationcontrol [15] $end
$var wire 1 Z seriesterminationcontrol [14] $end
$var wire 1 [ seriesterminationcontrol [13] $end
$var wire 1 \ seriesterminationcontrol [12] $end
$var wire 1 ] seriesterminationcontrol [11] $end
$var wire 1 ^ seriesterminationcontrol [10] $end
$var wire 1 _ seriesterminationcontrol [9] $end
$var wire 1 ` seriesterminationcontrol [8] $end
$var wire 1 a seriesterminationcontrol [7] $end
$var wire 1 b seriesterminationcontrol [6] $end
$var wire 1 c seriesterminationcontrol [5] $end
$var wire 1 d seriesterminationcontrol [4] $end
$var wire 1 e seriesterminationcontrol [3] $end
$var wire 1 f seriesterminationcontrol [2] $end
$var wire 1 g seriesterminationcontrol [1] $end
$var wire 1 h seriesterminationcontrol [0] $end
$var wire 1 . o $end
$var wire 1 i obar $end
$var reg 1 j out_tmp $end
$var reg 1 k out_tmp_bar $end
$var reg 1 l prev_value $end
$var wire 1 m tmp $end
$var wire 1 n tmp_bar $end
$var wire 1 o tmp1 $end
$var wire 1 p tmp1_bar $end
$upscope $end

$scope module rst~input $end
$var parameter 40 q differential_mode $end
$var parameter 40 r bus_hold $end
$var parameter 8 s simulate_z_as $end
$var parameter 136 t lpm_type $end
$var wire 1 & i $end
$var wire 1 ' ibar $end
$var wire 1 / o $end
$var reg 1 u out_tmp $end
$var reg 1 v o_tmp $end
$var wire 1 w out_val $end
$var reg 1 x prev_value $end
$upscope $end

$scope module clk~input $end
$var parameter 40 y differential_mode $end
$var parameter 40 z bus_hold $end
$var parameter 8 { simulate_z_as $end
$var parameter 136 | lpm_type $end
$var wire 1 % i $end
$var wire 1 ' ibar $end
$var wire 1 0 o $end
$var reg 1 } out_tmp $end
$var reg 1 ~ o_tmp $end
$var wire 1 !! out_val $end
$var reg 1 "! prev_value $end
$upscope $end

$scope module cnt0|g4~0 $end
$var parameter 16 #! lut_mask $end
$var parameter 40 $! sum_lutc_input $end
$var parameter 24 %! dont_touch $end
$var parameter 160 &! lpm_type $end
$var wire 1 '! dataa $end
$var wire 1 (! datab $end
$var wire 1 )! datac $end
$var wire 1 *! datad $end
$var wire 1 ' cin $end
$var wire 1 1 combout $end
$var wire 1 +! cout $end
$var reg 1 ,! cout_tmp $end
$var reg 1 -! combout_tmp $end
$var reg 2 .! isum_lutc_input [1:0] $end
$var wire 1 /! dataa_in $end
$var wire 1 0! datab_in $end
$var wire 1 1! datac_in $end
$var wire 1 2! datad_in $end
$var wire 1 3! cin_in $end

$scope function lut4 $end
$var reg 1 4! lut4 $end
$var reg 16 5! mask [15:0] $end
$var reg 1 6! dataa $end
$var reg 1 7! datab $end
$var reg 1 8! datac $end
$var reg 1 9! datad $end
$upscope $end
$upscope $end

$scope module cnt0|g6~0 $end
$var parameter 16 :! lut_mask $end
$var parameter 40 ;! sum_lutc_input $end
$var parameter 24 <! dont_touch $end
$var parameter 160 =! lpm_type $end
$var wire 1 >! dataa $end
$var wire 1 ?! datab $end
$var wire 1 @! datac $end
$var wire 1 A! datad $end
$var wire 1 ' cin $end
$var wire 1 2 combout $end
$var wire 1 B! cout $end
$var reg 1 C! cout_tmp $end
$var reg 1 D! combout_tmp $end
$var reg 2 E! isum_lutc_input [1:0] $end
$var wire 1 F! dataa_in $end
$var wire 1 G! datab_in $end
$var wire 1 H! datac_in $end
$var wire 1 I! datad_in $end
$var wire 1 J! cin_in $end

$scope function lut4 $end
$var reg 1 K! lut4 $end
$var reg 16 L! mask [15:0] $end
$var reg 1 M! dataa $end
$var reg 1 N! datab $end
$var reg 1 O! datac $end
$var reg 1 P! datad $end
$upscope $end
$upscope $end

$scope module cnt0|g2~0 $end
$var parameter 16 Q! lut_mask $end
$var parameter 40 R! sum_lutc_input $end
$var parameter 24 S! dont_touch $end
$var parameter 160 T! lpm_type $end
$var wire 1 U! dataa $end
$var wire 1 V! datab $end
$var wire 1 W! datac $end
$var wire 1 X! datad $end
$var wire 1 ' cin $end
$var wire 1 3 combout $end
$var wire 1 Y! cout $end
$var reg 1 Z! cout_tmp $end
$var reg 1 [! combout_tmp $end
$var reg 2 \! isum_lutc_input [1:0] $end
$var wire 1 ]! dataa_in $end
$var wire 1 ^! datab_in $end
$var wire 1 _! datac_in $end
$var wire 1 `! datad_in $end
$var wire 1 a! cin_in $end

$scope function lut4 $end
$var reg 1 b! lut4 $end
$var reg 16 c! mask [15:0] $end
$var reg 1 d! dataa $end
$var reg 1 e! datab $end
$var reg 1 f! datac $end
$var reg 1 g! datad $end
$upscope $end
$upscope $end

$scope module cnt0|g5 $end
$var parameter 16 h! lut_mask $end
$var parameter 40 i! sum_lutc_input $end
$var parameter 24 j! dont_touch $end
$var parameter 160 k! lpm_type $end
$var wire 1 ' dataa $end
$var wire 1 l! datab $end
$var wire 1 ' datac $end
$var wire 1 m! datad $end
$var wire 1 ' cin $end
$var wire 1 4 combout $end
$var wire 1 n! cout $end
$var reg 1 o! cout_tmp $end
$var reg 1 p! combout_tmp $end
$var reg 2 q! isum_lutc_input [1:0] $end
$var wire 1 r! dataa_in $end
$var wire 1 s! datab_in $end
$var wire 1 t! datac_in $end
$var wire 1 u! datad_in $end
$var wire 1 v! cin_in $end

$scope function lut4 $end
$var reg 1 w! lut4 $end
$var reg 16 x! mask [15:0] $end
$var reg 1 y! dataa $end
$var reg 1 z! datab $end
$var reg 1 {! datac $end
$var reg 1 |! datad $end
$upscope $end
$upscope $end

$scope module cnt1|g4~0 $end
$var parameter 16 }! lut_mask $end
$var parameter 40 ~! sum_lutc_input $end
$var parameter 24 !" dont_touch $end
$var parameter 160 "" lpm_type $end
$var wire 1 #" dataa $end
$var wire 1 ' datab $end
$var wire 1 $" datac $end
$var wire 1 %" datad $end
$var wire 1 ' cin $end
$var wire 1 5 combout $end
$var wire 1 &" cout $end
$var reg 1 '" cout_tmp $end
$var reg 1 (" combout_tmp $end
$var reg 2 )" isum_lutc_input [1:0] $end
$var wire 1 *" dataa_in $end
$var wire 1 +" datab_in $end
$var wire 1 ," datac_in $end
$var wire 1 -" datad_in $end
$var wire 1 ." cin_in $end

$scope function lut4 $end
$var reg 1 /" lut4 $end
$var reg 16 0" mask [15:0] $end
$var reg 1 1" dataa $end
$var reg 1 2" datab $end
$var reg 1 3" datac $end
$var reg 1 4" datad $end
$upscope $end
$upscope $end

$scope module cnt1|g5~0 $end
$var parameter 16 5" lut_mask $end
$var parameter 40 6" sum_lutc_input $end
$var parameter 24 7" dont_touch $end
$var parameter 160 8" lpm_type $end
$var wire 1 ' dataa $end
$var wire 1 9" datab $end
$var wire 1 :" datac $end
$var wire 1 ;" datad $end
$var wire 1 ' cin $end
$var wire 1 6 combout $end
$var wire 1 <" cout $end
$var reg 1 =" cout_tmp $end
$var reg 1 >" combout_tmp $end
$var reg 2 ?" isum_lutc_input [1:0] $end
$var wire 1 @" dataa_in $end
$var wire 1 A" datab_in $end
$var wire 1 B" datac_in $end
$var wire 1 C" datad_in $end
$var wire 1 D" cin_in $end

$scope function lut4 $end
$var reg 1 E" lut4 $end
$var reg 16 F" mask [15:0] $end
$var reg 1 G" dataa $end
$var reg 1 H" datab $end
$var reg 1 I" datac $end
$var reg 1 J" datad $end
$upscope $end
$upscope $end

$scope module cnt1|g2~0 $end
$var parameter 16 K" lut_mask $end
$var parameter 40 L" sum_lutc_input $end
$var parameter 24 M" dont_touch $end
$var parameter 160 N" lpm_type $end
$var wire 1 O" dataa $end
$var wire 1 P" datab $end
$var wire 1 Q" datac $end
$var wire 1 R" datad $end
$var wire 1 ' cin $end
$var wire 1 7 combout $end
$var wire 1 S" cout $end
$var reg 1 T" cout_tmp $end
$var reg 1 U" combout_tmp $end
$var reg 2 V" isum_lutc_input [1:0] $end
$var wire 1 W" dataa_in $end
$var wire 1 X" datab_in $end
$var wire 1 Y" datac_in $end
$var wire 1 Z" datad_in $end
$var wire 1 [" cin_in $end

$scope function lut4 $end
$var reg 1 \" lut4 $end
$var reg 16 ]" mask [15:0] $end
$var reg 1 ^" dataa $end
$var reg 1 _" datab $end
$var reg 1 `" datac $end
$var reg 1 a" datad $end
$upscope $end
$upscope $end

$scope module cnt1|g5~1 $end
$var parameter 16 b" lut_mask $end
$var parameter 40 c" sum_lutc_input $end
$var parameter 24 d" dont_touch $end
$var parameter 160 e" lpm_type $end
$var wire 1 f" dataa $end
$var wire 1 ' datab $end
$var wire 1 g" datac $end
$var wire 1 h" datad $end
$var wire 1 ' cin $end
$var wire 1 8 combout $end
$var wire 1 i" cout $end
$var reg 1 j" cout_tmp $end
$var reg 1 k" combout_tmp $end
$var reg 2 l" isum_lutc_input [1:0] $end
$var wire 1 m" dataa_in $end
$var wire 1 n" datab_in $end
$var wire 1 o" datac_in $end
$var wire 1 p" datad_in $end
$var wire 1 q" cin_in $end

$scope function lut4 $end
$var reg 1 r" lut4 $end
$var reg 16 s" mask [15:0] $end
$var reg 1 t" dataa $end
$var reg 1 u" datab $end
$var reg 1 v" datac $end
$var reg 1 w" datad $end
$upscope $end
$upscope $end
$upscope $end
$upscope $end
$enddefinitions $end
#0
$dumpvars
0!
0"
xN
xO
0P
xj
xk
0l
0u
0v
0x
0}
0~
0"!
0,!
x-!
b0 .!
04!
b1000000011000000 5!
x6!
x7!
08!
09!
xC!
xD!
b0 E!
xK!
b100000001100 L!
xM!
xN!
0O!
0P!
0Z!
x[!
b0 \!
0b!
b1110000000000000 c!
xd!
xe!
0f!
0g!
xo!
xp!
b0 q!
xw!
b110011 x!
0y!
xz!
0{!
0|!
0'"
x("
b0 )"
0/"
b101010100000 0"
x1"
02"
03"
04"
x="
x>"
b0 ?"
xE"
b1100000011001100 F"
0G"
xH"
0I"
0J"
0T"
xU"
b0 V"
0\"
b1100100000000000 ]"
x^"
x_"
0`"
0a"
xj"
xk"
b0 l"
xr"
b111100000101 s"
xt"
0u"
0v"
0w"
b1000000011000000 #!
b100000001100 :!
b1110000000000000 Q!
b110011 h!
b101010100000 }!
b1100000011001100 5"
b1100100000000000 K"
b111100000101 b"
b110011001100001011011000111001101100101 9
b110011001100001011011000111001101100101 :
b110001101111001011000110110110001101111011011100110010101101001011101100101111101101001011011110101111101101111011000100111010101100110 ;
b110011001100001011011000111001101100101 U
b110011001100001011011000111001101100101 V
b110001101111001011000110110110001101111011011100110010101101001011101100101111101101001011011110101111101101111011000100111010101100110 W
b110011001100001011011000111001101100101 q
b110011001100001011011000111001101100101 r
b1111010 s
b110001101111001011000110110110001101111011011100110010101101001011101100101111101101001011011110101111101101001011000100111010101100110 t
b110011001100001011011000111001101100101 y
b110011001100001011011000111001101100101 z
b1111010 {
b110001101111001011000110110110001101111011011100110010101101001011101100101111101101001011011110101111101101001011000100111010101100110 |
b110010001100001011101000110000101100011 $!
b11011110110011001100110 %!
b110001101111001011000110110110001101111011011100110010101101001011101100101111101101100011000110110010101101100011011000101111101100011011011110110110101100010 &!
b110010001100001011101000110000101100011 ;!
b11011110110011001100110 <!
b110001101111001011000110110110001101111011011100110010101101001011101100101111101101100011000110110010101101100011011000101111101100011011011110110110101100010 =!
b110010001100001011101000110000101100011 R!
b11011110110011001100110 S!
b110001101111001011000110110110001101111011011100110010101101001011101100101111101101100011000110110010101101100011011000101111101100011011011110110110101100010 T!
b110010001100001011101000110000101100011 i!
b11011110110011001100110 j!
b110001101111001011000110110110001101111011011100110010101101001011101100101111101101100011000110110010101101100011011000101111101100011011011110110110101100010 k!
b110010001100001011101000110000101100011 ~!
b11011110110011001100110 !"
b110001101111001011000110110110001101111011011100110010101101001011101100101111101101100011000110110010101101100011011000101111101100011011011110110110101100010 ""
b110010001100001011101000110000101100011 6"
b11011110110011001100110 7"
b110001101111001011000110110110001101111011011100110010101101001011101100101111101101100011000110110010101101100011011000101111101100011011011110110110101100010 8"
b110010001100001011101000110000101100011 L"
b11011110110011001100110 M"
b110001101111001011000110110110001101111011011100110010101101001011101100101111101101100011000110110010101101100011011000101111101100011011011110110110101100010 N"
b110010001100001011101000110000101100011 c"
b11011110110011001100110 d"
b110001101111001011000110110110001101111011011100110010101101001011101100101111101101100011000110110010101101100011011000101111101100011011011110110110101100010 e"
x$
x#
0'
1(
x)
1*
1+
1,
x-
x.
0/
00
x1
x2
x3
x4
x5
x6
x7
x8
xQ
xR
xS
xT
xm
xn
xo
xp
zw
z!!
x/!
x0!
x1!
x2!
03!
xF!
xG!
xH!
xI!
0J!
x]!
x^!
x_!
x`!
0a!
0r!
xs!
0t!
xu!
0v!
x*"
0+"
x,"
x-"
0."
0@"
xA"
xB"
xC"
0D"
xW"
xX"
xY"
xZ"
0["
xm"
0n"
xo"
xp"
0q"
0&
0%
0h
0g
0f
0e
0d
0c
0b
0a
0`
0_
0^
0]
0\
0[
0Z
0Y
0L
0K
0J
0I
0H
0G
0F
0E
0D
0C
0B
0A
0@
0?
0>
0=
x<
xM
xX
xi
x'!
x(!
x)!
x*!
0+!
x>!
x?!
x@!
xA!
xB!
xU!
xV!
xW!
xX!
0Y!
xl!
xm!
xn!
x#"
x$"
x%"
0&"
x9"
x:"
x;"
x<"
xO"
xP"
xQ"
xR"
0S"
xf"
xg"
xh"
xi"
$end
#3998
0X!
0`!
xf!
0[!
0f!
#4001
0*!
0;"
02!
0C"
xI"
0I"
x8!
x4!
08!
04!
#4002
0R"
0Z"
x`"
0U"
0`"
#4003
0A!
0I!
xO!
0O!
#4037
0(!
09"
00!
0A"
0H"
xI"
0E"
0>"
0I"
0="
07!
x8!
0-!
08!
0<"
#4038
0P"
0X"
0_"
x`"
0`"
#4039
0?!
0G!
0N!
xO!
0K!
0D!
0O!
0C!
0B!
#4118
03
#4122
07
#4197
0W!
0_!
#4329
0m!
0u!
#4336
0Q"
0Y"
#4337
0g"
0o"
xw"
0w"
#4364
0V!
0^!
0e!
#4379
01
#4406
06
#4408
02
#4645
0l!
0'!
0s!
0/!
06!
x8!
08!
0z!
1w!
1p!
1o!
1n!
#4646
0>!
0F!
0M!
xO!
0O!
#4648
0U!
0]!
0d!
#4661
0f"
0m"
0t"
xw"
1r"
1k"
0w"
1j"
1i"
#4662
0#"
0*"
01"
x3"
x4"
0("
03"
04"
#5009
05
#5026
14
#5032
18
#5227
0:"
0B"
#5233
1h"
1p"
1w"
0w"
#5235
1%"
1-"
x3"
14"
03"
04"
#5266
0O"
0W"
0^"
#5368
1@!
1H!
1O!
0O!
#5370
1)!
11!
18!
08!
#5372
1$"
1,"
13"
14"
03"
04"
#5837
0<
0N
1O
0Q
1R
1T
0S
1M
#6004
0X
0j
1k
0m
1n
1p
0o
1i
#8371
0-
0$
#8538
0.
0#
#10000
1!
1%
1~
1"!
1}
#10507
10
#14174
1X!
1`!
1g!
0g!
#14176
1*!
1;"
1R"
12!
1C"
1Z"
1a"
0a"
1J"
0J"
18!
19!
08!
09!
#14177
1A!
1I!
1O!
1P!
0O!
0P!
#20000
0!
0%
0~
0"!
0}
#20681
00
#24679
0X!
0`!
#24682
0*!
0;"
02!
0C"
18!
08!
#24683
0R"
0Z"
#24684
0A!
0I!
1O!
0O!
#30000
1!
1%
1~
1"!
1}
#30507
10
#34174
1X!
1`!
1g!
0g!
#34176
1*!
1;"
1R"
12!
1C"
1Z"
1a"
0a"
1J"
0J"
18!
19!
08!
09!
#34177
1A!
1I!
1O!
1P!
0O!
0P!
#40000
0!
0%
0~
0"!
0}
#40681
00
#44679
0X!
0`!
#44682
0*!
0;"
02!
0C"
18!
08!
#44683
0R"
0Z"
#44684
0A!
0I!
1O!
0O!
#50000
1!
1%
1~
1"!
1}
#50507
10
#54174
1X!
1`!
1g!
0g!
#54176
1*!
1;"
1R"
12!
1C"
1Z"
1a"
0a"
1J"
0J"
18!
19!
08!
09!
#54177
1A!
1I!
1O!
1P!
0O!
0P!
#60000
0!
0%
0~
0"!
0}
#60681
00
#64679
0X!
0`!
#64682
0*!
0;"
02!
0C"
18!
08!
#64683
0R"
0Z"
#64684
0A!
0I!
1O!
0O!
#70000
1!
1%
1~
1"!
1}
#70507
10
#74174
1X!
1`!
1g!
0g!
#74176
1*!
1;"
1R"
12!
1C"
1Z"
1a"
0a"
1J"
0J"
18!
19!
08!
09!
#74177
1A!
1I!
1O!
1P!
0O!
0P!
#80000
0!
0%
0~
0"!
0}
#80681
00
#84679
0X!
0`!
#84682
0*!
0;"
02!
0C"
18!
08!
#84683
0R"
0Z"
#84684
0A!
0I!
1O!
0O!
#90000
1!
1%
1~
1"!
1}
#90507
10
#94174
1X!
1`!
1g!
0g!
#94176
1*!
1;"
1R"
12!
1C"
1Z"
1a"
0a"
1J"
0J"
18!
19!
08!
09!
#94177
1A!
1I!
1O!
1P!
0O!
0P!
#100000
1"
0!
1&
0%
0~
0"!
0}
1v
1x
1u
#100527
1/
#100681
00
#104234
19"
1A"
1H"
1J"
0J"
1E"
1="
1<"
#104235
1(!
10!
17!
18!
19!
08!
09!
#104236
1?!
1P"
1G!
1X"
1_"
1a"
0a"
1N!
1O!
1P!
0O!
0P!
1K!
1C!
1B!
#104418
1W!
1_!
1f!
1g!
0f!
0g!
#104679
0X!
0`!
1f!
0f!
#104682
0*!
0;"
02!
0C"
1>"
18!
14!
1-!
08!
04!
#104683
0R"
0Z"
#104684
0A!
0I!
1O!
0K!
0O!
1K!
#104812
11
16
#105030
1f"
1m"
1t"
1w"
0w"
0r"
0j"
0i"
#105031
1#"
1*"
11"
13"
14"
03"
04"
#105038
1>!
1F!
1M!
1O!
0K!
0O!
1K!
#105039
1'!
1/!
16!
18!
14!
08!
04!
#105040
1U!
1]!
1d!
1f!
0f!
#110000
1!
1%
1~
1"!
1}
#110507
10
#114174
1X!
1`!
1f!
1g!
1b!
1[!
0f!
0g!
0b!
#114176
1*!
1;"
1R"
12!
1C"
1Z"
1a"
0a"
1J"
0E"
0>"
0J"
1E"
18!
19!
14!
08!
09!
04!
#114177
1A!
1I!
1O!
1P!
0K!
0O!
0P!
1K!
#114296
06
#114304
13
#114487
1m!
1u!
1|!
0w!
0p!
0|!
1w!
#114515
1V!
1^!
1e!
1f!
1g!
1b!
0f!
0g!
0b!
#114551
0f"
0m"
0t"
1w"
1r"
0w"
1j"
1i"
#114552
0#"
0*"
01"
13"
14"
03"
04"
#114607
04
#114967
0@!
0H!
1P!
1D!
0P!
#114969
0)!
01!
19!
0-!
09!
#114972
0$"
0,"
14"
04"
#115208
12
#115211
01
#115413
1l!
1s!
1z!
1|!
0w!
0|!
0o!
0n!
#115415
1<
1N
0O
1P
1Q
0R
0T
1S
0M
#115477
0'!
0/!
06!
19!
09!
#115478
0>!
0F!
0M!
1P!
0K!
0D!
0P!
1K!
#115480
0U!
0]!
0d!
1f!
1g!
1b!
0f!
0g!
0b!
#115786
02
#116023
0l!
0s!
0z!
1|!
0|!
1w!
1o!
1n!
#117851
1-
1$
#120000
0!
0%
0~
0"!
0}
#120681
00
#124679
0X!
0`!
1f!
0[!
0f!
#124682
0*!
0;"
02!
0C"
1>"
#124683
0R"
0Z"
#124684
0A!
0I!
1D!
#124799
03
#124812
16
#124814
12
#125010
0m!
0u!
1p!
#125019
1l!
1s!
1z!
0w!
0p!
0o!
0n!
#125030
1f"
1m"
1t"
1w"
0w"
0r"
0j"
0i"
#125031
1#"
1*"
11"
14"
1/"
1("
04"
0/"
#125045
0V!
0^!
0e!
1f!
0f!
#125140
14
#125372
15
#125399
04
#125482
1@!
1H!
1O!
0K!
0D!
0O!
1K!
#125484
1)!
11!
18!
14!
1-!
08!
04!
#125486
1$"
1,"
13"
14"
0("
03"
04"
#125558
1:"
1B"
1I"
0I"
#125591
1O"
1W"
1^"
#125723
02
#125727
05
11
#125759
0@!
0H!
1D!
#125761
0)!
01!
0-!
#125764
0$"
0,"
14"
1/"
1("
04"
0/"
#125945
0:"
0B"
#125951
0<
0N
1O
0P
0Q
1R
1T
0S
1M
#125953
1>!
1F!
1M!
#125954
1'!
1/!
16!
#125955
1U!
1]!
1d!
1f!
0f!
#125960
0l!
0s!
0z!
1w!
1p!
1o!
1n!
#125984
0O"
0W"
0^"
#126000
12
#126003
01
#126007
15
#126193
1:"
1B"
1I"
0I"
#126205
1l!
1s!
1z!
0w!
0p!
0o!
0n!
#126207
1<
1N
0O
1P
1Q
0R
0T
1S
0M
#126226
1O"
1W"
1^"
#126269
0'!
0/!
06!
#126270
0>!
0F!
0M!
#126272
0U!
0]!
0d!
1f!
0f!
#126341
14
#126585
04
#126683
1@!
1H!
1O!
0K!
0D!
0O!
1K!
#126685
1)!
11!
18!
14!
1-!
08!
04!
#126687
1$"
1,"
13"
14"
0("
03"
04"
#126924
02
#126928
05
11
#126945
0@!
0H!
1D!
#126947
0)!
01!
0-!
#126950
0$"
0,"
14"
1/"
1("
04"
0/"
#127146
0:"
0B"
#127152
0<
0N
1O
0P
0Q
1R
1T
0S
1M
#127154
1>!
1F!
1M!
#127155
1'!
1/!
16!
#127156
1U!
1]!
1d!
1f!
0f!
#127161
0l!
0s!
0z!
1w!
1p!
1o!
1n!
#127185
0O"
0W"
0^"
#127186
12
#127189
01
#127193
15
#127379
1:"
1B"
1I"
0I"
#127391
1l!
1s!
1z!
0w!
0p!
0o!
0n!
#127393
1<
1N
0O
1P
1Q
0R
0T
1S
0M
#127412
1O"
1W"
1^"
#127455
0'!
0/!
06!
#127456
0>!
0F!
0M!
#127458
0U!
0]!
0d!
1f!
0f!
#127542
14
#127771
04
#127884
1@!
1H!
1O!
0K!
0D!
0O!
1K!
#127886
1)!
11!
18!
14!
1-!
08!
04!
#127888
1$"
1,"
13"
14"
0("
03"
04"
#128125
02
#128129
05
11
#128131
0@!
0H!
1D!
#128133
0)!
01!
0-!
#128136
0$"
0,"
14"
1/"
1("
04"
0/"
#128347
0:"
0B"
#128353
0<
0N
1O
0P
0Q
1R
1T
0S
1M
#128355
1>!
1F!
1M!
#128356
1'!
1/!
16!
#128357
1U!
1]!
1d!
1f!
0f!
#128362
0l!
0s!
0z!
1w!
1p!
1o!
1n!
#128372
12
#128375
01
#128379
15
#128386
0O"
0W"
0^"
#128485
0-
0$
#128565
1:"
1B"
1I"
0I"
#128577
1l!
1s!
1z!
0w!
0p!
0o!
0n!
#128579
1<
1N
0O
1P
1Q
0R
0T
1S
0M
#128598
1O"
1W"
1^"
#128641
0'!
0/!
06!
#128642
0>!
0F!
0M!
#128643
1-
1$
#128644
0U!
0]!
0d!
1f!
0f!
#128743
14
#128957
04
#129085
1@!
1H!
1O!
0K!
0D!
0O!
1K!
#129087
1)!
11!
18!
14!
1-!
08!
04!
#129089
1$"
1,"
13"
14"
0("
03"
04"
#129317
0@!
0H!
1D!
#129319
0)!
01!
0-!
#129322
0$"
0,"
14"
1/"
1("
04"
0/"
#129326
02
#129330
11
05
#129548
0:"
0B"
#129554
0<
0N
1O
0P
0Q
1R
1T
0S
1M
#129556
1>!
1F!
1M!
#129557
1'!
1/!
16!
#129558
1U!
12
1]!
1d!
1f!
0f!
#129561
01
#129563
0l!
0s!
0z!
1w!
1p!
1o!
1n!
#129565
15
#129587
0O"
0W"
0^"
#129686
0-
0$
#129751
1:"
1B"
1I"
0I"
#129763
1l!
1s!
1z!
0w!
0p!
0o!
0n!
#129765
1<
1N
0O
1P
1Q
0R
0T
1S
0M
#129784
1O"
1W"
1^"
#129827
0'!
0/!
06!
#129828
0>!
0F!
0M!
#129829
1-
1$
#129830
0U!
0]!
0d!
1f!
0f!
#129944
14
#130000
1!
1%
1~
1"!
1}
#130143
04
#130286
1@!
1H!
1O!
0K!
0D!
0O!
1K!
#130288
1)!
11!
18!
14!
1-!
08!
04!
#130290
1$"
1,"
13"
14"
0("
03"
04"
#130503
0@!
0H!
1D!
#130505
0)!
01!
0-!
#130507
10
#130508
0$"
0,"
14"
1/"
1("
04"
0/"
#130527
02
#130531
11
05
#130744
12
#130747
01
#130749
0:"
0B"
#130751
15
#130755
0<
0N
1O
0P
0Q
1R
1T
0S
1M
#130757
1>!
1F!
1M!
#130758
1'!
1/!
16!
#130759
1U!
1]!
1d!
1f!
0f!
#130764
0l!
0s!
0z!
1w!
1p!
1o!
1n!
#130788
0O"
0W"
0^"
#130887
0-
0$
#130937
1:"
1B"
1I"
0I"
#130949
1l!
1s!
1z!
0w!
0p!
0o!
0n!
#130951
1<
1N
0O
1P
1Q
0R
0T
1S
0M
#130970
1O"
1W"
1^"
#131013
0'!
0/!
06!
#131014
0>!
0F!
0M!
#131015
1-
1$
#131016
0U!
0]!
0d!
1f!
0f!
#131145
14
#131329
04
#131487
1@!
1H!
1O!
0K!
0D!
0O!
1K!
#131489
1)!
11!
18!
14!
1-!
08!
04!
#131491
1$"
1,"
13"
14"
0("
03"
04"
#131689
0@!
0H!
1D!
#131691
0)!
01!
0-!
#131694
0$"
0,"
14"
1/"
1("
04"
0/"
#131728
02
#131732
11
05
#131930
12
#131933
01
#131937
15
#131950
0:"
0B"
#131956
0<
0N
1O
0P
0Q
1R
1T
0S
1M
#131958
1>!
1F!
1M!
#131959
1'!
1/!
16!
#131960
1U!
1]!
1d!
1f!
0f!
#131965
0l!
0s!
0z!
1w!
1p!
1o!
1n!
#131989
0O"
0W"
0^"
#132088
0-
0$
#132123
1:"
1B"
1I"
0I"
#132135
1l!
1s!
1z!
0w!
0p!
0o!
0n!
#132137
1<
1N
0O
1P
1Q
0R
0T
1S
0M
#132156
1O"
1W"
1^"
#132199
0'!
0/!
06!
#132200
0>!
0F!
0M!
#132201
1-
1$
#132202
0U!
0]!
0d!
1f!
0f!
#132346
14
#132515
04
#132688
1@!
1H!
1O!
0K!
0D!
0O!
1K!
#132690
1)!
11!
18!
14!
1-!
08!
04!
#132692
1$"
1,"
13"
14"
0("
03"
04"
#132875
0@!
0H!
1D!
#132877
0)!
01!
0-!
#132880
0$"
0,"
14"
1/"
1("
04"
0/"
#132929
02
#132933
11
05
#133116
12
#133119
01
#133123
15
#133151
0:"
0B"
#133157
0<
0N
1O
0P
0Q
1R
1T
0S
1M
#133159
1>!
1F!
1M!
#133160
1'!
1/!
16!
#133161
1U!
1]!
1d!
1f!
0f!
#133166
0l!
0s!
0z!
1w!
1p!
1o!
1n!
#133190
0O"
0W"
0^"
#133289
0-
0$
#133309
1:"
1B"
1I"
0I"
#133321
1l!
1s!
1z!
0w!
0p!
0o!
0n!
#133323
1<
1N
0O
1P
1Q
0R
0T
1S
0M
#133342
1O"
1W"
1^"
#133385
0'!
0/!
06!
#133386
0>!
0F!
0M!
#133387
1-
1$
#133388
0U!
0]!
0d!
1f!
0f!
#133547
14
#133701
04
#133889
1@!
1H!
1O!
0K!
0D!
0O!
1K!
#133891
1)!
11!
18!
14!
1-!
08!
04!
#133893
1$"
1,"
13"
14"
0("
03"
04"
#134061
0@!
0H!
1D!
#134063
0)!
01!
0-!
#134066
0$"
0,"
14"
1/"
1("
04"
0/"
#134130
02
#134134
11
05
#134174
1X!
1`!
1f!
1g!
0f!
0g!
#134176
1*!
1;"
1R"
12!
1C"
1Z"
1a"
1\"
1U"
0a"
0\"
1I"
1J"
0I"
0J"
19!
09!
#134177
1A!
1I!
1P!
0K!
0D!
0P!
1K!
#134305
01
#134306
17
#134309
15
#134352
0:"
0B"
1J"
0E"
0>"
0J"
1E"
